\fY     ==============================
     \fH    루 피 S E R V E R 
     \fY==============================
     \f2  Exp  :  3000           
     \f2  ADEN :  30           
     \f2  DROP :  10           
     \f3  운영기간 3개월 유지
     \fY------------------------------
     \f=  약속지키는 전통 반하자